[gd_scene load_steps=3 format=3 uid="uid://88pajf8t0tgo"]

[ext_resource type="Texture2D" uid="uid://dfj0yfnrrgofv" path="res://assets/sprites/platforms.png" id="1_m3sim"]

[sub_resource type="RectangleShape2D" id="RectangleShape2D_sccp6"]
size = Vector2(32, 8)

[node name="PlatForm" type="AnimatableBody2D"]

[node name="Sprite2D" type="Sprite2D" parent="."]
texture = ExtResource("1_m3sim")
region_enabled = true
region_rect = Rect2(17, 48, 31, 9)

[node name="CollisionShape2D" type="CollisionShape2D" parent="."]
shape = SubResource("RectangleShape2D_sccp6")
one_way_collision = true
